+ 2 Magic Damage (+1 for Mage)
0
2
0
0
+ 3 Magic Damage (+1 for Mage)
0
3
0
0
+ 3 Armor (+1 for Warrior)
0
0
0
3
+ 4 Armor (+1 for Warrior)
0
0
0
4
+ .30 Attack Speed (+.3 for Hunter)
0
0
30
0
+ .25 Attack Speed (+.25 for Hunter)
0
0
25
0
+ 2 Base Damage
2
0
0
0
+ 3 Base Damage
3
0
0
0
+ 4 Base Damage
4
0
0
0
+ 1 Base Damage and Magic Damage (+1 Magic Damage for Mage)
1
1
0
0
+ 2 Base Damage and .20 Attack Speed (+.20 Attack Speed for Hunter)
2
0
2
0
+ 2 Base Damage and Armor (+1 Armor for Warrior)
2
0
0
2
