+ 3 Magic Damage (+1 for Mage)
0
3
0
0
+ 4 Magic Damage (+1 for Mage)
0
4
0
0
+ 5 Magic Damage (+1 for Mage)
0
5
0
0
+ 4 Armor (+1 for Warrior)
0
0
0
4
+ 5 Armor (+1 for Warrior)
0
0
0
5
+ 6 Armor (+1 for Warrior)
0
0
0
6
+ .35 Attack Speed (+.35 for Hunter)
0
0
35
0
+ .40 Attack Speed (+.40 for Hunter)
0
0
40
0
+ .45 Attack Speed (+.45 for Hunter)
0
0
45
0
+ 3 Base Damage
3
0
0
0
+ 4 Base Damage
4
0
0
0
+ 5 Base Damage
5
0
0
0
+ 2 Base Damage and Magic Damage (+1 Magic Damage for Mage)
2
2
0
0
+ 2 Basic Damage and .25 Attack Speed (+.25 Attack Speed for Hunter)
2
0
25
0
+ 2 Base Damage and + 3 Armor (+1 for Warrior)
2
0
0
3
